\relax 
\providecommand\hyper@newdestlabel[2]{}
\catcode `"\active 
\providecommand\HyperFirstAtBeginDocument{\AtBeginDocument}
\HyperFirstAtBeginDocument{\ifx\hyper@anchor\@undefined
\global\let\oldcontentsline\contentsline
\gdef\contentsline#1#2#3#4{\oldcontentsline{#1}{#2}{#3}}
\global\let\oldnewlabel\newlabel
\gdef\newlabel#1#2{\newlabelxx{#1}#2}
\gdef\newlabelxx#1#2#3#4#5#6{\oldnewlabel{#1}{{#2}{#3}}}
\AtEndDocument{\ifx\hyper@anchor\@undefined
\let\contentsline\oldcontentsline
\let\newlabel\oldnewlabel
\fi}
\fi}
\global\let\hyper@last\relax 
\gdef\HyperFirstAtBeginDocument#1{#1}
\providecommand\HyField@AuxAddToFields[1]{}
\providecommand\HyField@AuxAddToCoFields[2]{}
\abx@aux@refcontext{none/global//global/global}
\babel@aux{polish}{}
\providecommand \oddpage@label [2]{}
\@writefile{toc}{\boolfalse {citerequest}\boolfalse {citetracker}\boolfalse {pagetracker}\boolfalse {backtracker}\relax }
\@writefile{lof}{\boolfalse {citerequest}\boolfalse {citetracker}\boolfalse {pagetracker}\boolfalse {backtracker}\relax }
\@writefile{lot}{\boolfalse {citerequest}\boolfalse {citetracker}\boolfalse {pagetracker}\boolfalse {backtracker}\relax }
\babel@aux{polish}{}
\@writefile{toc}{\defcounter {refsection}{0}\relax }\@writefile{toc}{\contentsline {chapter}{\numberline {1}Wst\IeC {\k e}p}{1}{chapter.1}\protected@file@percent }
\@writefile{lof}{\defcounter {refsection}{0}\relax }\@writefile{lof}{\addvspace {10\p@ }}
\@writefile{lot}{\defcounter {refsection}{0}\relax }\@writefile{lot}{\addvspace {10\p@ }}
\@writefile{loa}{\defcounter {refsection}{0}\relax }\@writefile{loa}{\addvspace {10\p@ }}
\abx@aux@cite{international_diabetes_federation_idf_2019}
\abx@aux@segm{0}{0}{international_diabetes_federation_idf_2019}
\abx@aux@cite{international_diabetes_federation_idf_2019}
\abx@aux@segm{0}{0}{international_diabetes_federation_idf_2019}
\abx@aux@cite{karnafel_epidemiologia_2013}
\abx@aux@segm{0}{0}{karnafel_epidemiologia_2013}
\abx@aux@cite{international_diabetes_federation_idf_2019}
\abx@aux@segm{0}{0}{international_diabetes_federation_idf_2019}
\abx@aux@cite{karnafel_epidemiologia_2013}
\abx@aux@segm{0}{0}{karnafel_epidemiologia_2013}
\abx@aux@cite{international_diabetes_federation_idf_2019}
\abx@aux@segm{0}{0}{international_diabetes_federation_idf_2019}
\abx@aux@cite{international_diabetes_federation_clinical_2017}
\abx@aux@segm{0}{0}{international_diabetes_federation_clinical_2017}
\abx@aux@cite{karnafel_epidemiologia_2013}
\abx@aux@segm{0}{0}{karnafel_epidemiologia_2013}
\@writefile{toc}{\defcounter {refsection}{0}\relax }\@writefile{toc}{\contentsline {chapter}{\numberline {2}Wprowadzenie}{3}{chapter.2}\protected@file@percent }
\@writefile{lof}{\defcounter {refsection}{0}\relax }\@writefile{lof}{\addvspace {10\p@ }}
\@writefile{lot}{\defcounter {refsection}{0}\relax }\@writefile{lot}{\addvspace {10\p@ }}
\@writefile{loa}{\defcounter {refsection}{0}\relax }\@writefile{loa}{\addvspace {10\p@ }}
\@writefile{toc}{\defcounter {refsection}{0}\relax }\@writefile{toc}{\contentsline {section}{\numberline {2.1}Epidemiologia i etiologia zespo\IeC {\l }u stopy cukrzycowej}{3}{section.2.1}\protected@file@percent }
\abx@aux@cite{karnafel_etiologia_2013}
\abx@aux@segm{0}{0}{karnafel_etiologia_2013}
\abx@aux@cite{karnafel_rola_2013}
\abx@aux@segm{0}{0}{karnafel_rola_2013}
\abx@aux@cite{katsilambaros_atlas_2012}
\abx@aux@segm{0}{0}{katsilambaros_atlas_2012}
\abx@aux@cite{karnafel_rola_2013}
\abx@aux@segm{0}{0}{karnafel_rola_2013}
\abx@aux@cite{karnafel_choroba_2013}
\abx@aux@segm{0}{0}{karnafel_choroba_2013}
\abx@aux@cite{karnafel_choroba_2013}
\abx@aux@segm{0}{0}{karnafel_choroba_2013}
\abx@aux@cite{katsilambaros_atlas_2012}
\abx@aux@segm{0}{0}{katsilambaros_atlas_2012}
\@writefile{lof}{\defcounter {refsection}{0}\relax }\@writefile{lof}{\contentsline {figure}{\numberline {2.1}{\ignorespaces {\color  {dgray}Chroniczny wrz\IeC {\'o}d pi\IeC {\k e}ty o pod\IeC {\l }o\IeC {\.z}u neuropatycznym u 68 letniej kobiety. Wed\IeC {\l }ug Jonathan Moore (Wikimedia) / CC BY, url: https://commons.wikimedia.org/wiki/File:Neuropathic\_heel\_ulcer.jpg}\relax }}{4}{figure.caption.1}\protected@file@percent }
\providecommand*\caption@xref[2]{\@setref\relax\@undefined{#1}}
\newlabel{neuropatyczny}{{2.1}{4}{{\color {dgray}Chroniczny wrzód pięty o podłożu neuropatycznym u 68 letniej kobiety. Według Jonathan Moore (Wikimedia) / CC BY, url: https://commons.wikimedia.org/wiki/File:Neuropathic\_heel\_ulcer.jpg}\relax }{figure.caption.1}{}}
\abx@aux@cite{katsilambaros_atlas_2012}
\abx@aux@segm{0}{0}{katsilambaros_atlas_2012}
\abx@aux@cite{katsilambaros_atlas_2012}
\abx@aux@segm{0}{0}{katsilambaros_atlas_2012}
\abx@aux@cite{mrozikiewicz-rakowska_staw_2013}
\abx@aux@segm{0}{0}{mrozikiewicz-rakowska_staw_2013}
\abx@aux@cite{katsilambaros_atlas_2012}
\abx@aux@segm{0}{0}{katsilambaros_atlas_2012}
\@writefile{lof}{\defcounter {refsection}{0}\relax }\@writefile{lof}{\contentsline {figure}{\numberline {2.2}{\ignorespaces {\color  {dgray}Stopa pacjenta dokni\IeC {\k e}tego stop\IeC {\k a} cukrzycow\IeC {\k a} o pod\IeC {\l }o\IeC {\.z}u angiopatycznym. Widoczna zgorzel cukrzycowa (martwica) oraz zsinienie tkanki du\IeC {\.z}ego palca. Wed\IeC {\l }ug Intermedichbo (Wikimedia) / CC BY-SA, url: https://commons.wikimedia.org/wiki/File:Diabetic\_foot\_syndrome.Serbia.JPG}\relax }}{5}{figure.caption.2}\protected@file@percent }
\newlabel{angiopatyczny}{{2.2}{5}{{\color {dgray}Stopa pacjenta dokniętego stopą cukrzycową o podłożu angiopatycznym. Widoczna zgorzel cukrzycowa (martwica) oraz zsinienie tkanki dużego palca. Według Intermedichbo (Wikimedia) / CC BY-SA, url: https://commons.wikimedia.org/wiki/File:Diabetic\_foot\_syndrome.Serbia.JPG}\relax }{figure.caption.2}{}}
\@writefile{lof}{\defcounter {refsection}{0}\relax }\@writefile{lof}{\contentsline {figure}{\numberline {2.3}{\ignorespaces {\color  {dgray}Stopa Charcota u pacjenta. Widoczny wrz\IeC {\'o}d. Wed\IeC {\l }ug Medicalpal (Wikimedia) / CC BY-SA, url: https://commons.wikimedia.org/wiki/File:Diabetic\_Charcot\_Foot\_Deformity.jpg}\relax }}{5}{figure.caption.3}\protected@file@percent }
\newlabel{charcot}{{2.3}{5}{{\color {dgray}Stopa Charcota u pacjenta. Widoczny wrzód. Według Medicalpal (Wikimedia) / CC BY-SA, url: https://commons.wikimedia.org/wiki/File:Diabetic\_Charcot\_Foot\_Deformity.jpg}\relax }{figure.caption.3}{}}
\abx@aux@cite{mrozikiewicz-rakowska_staw_2013}
\abx@aux@segm{0}{0}{mrozikiewicz-rakowska_staw_2013}
\abx@aux@cite{katsilambaros_atlas_2012}
\abx@aux@segm{0}{0}{katsilambaros_atlas_2012}
\abx@aux@cite{rosinski_atlas_2009}
\abx@aux@segm{0}{0}{rosinski_atlas_2009}
\@writefile{toc}{\defcounter {refsection}{0}\relax }\@writefile{toc}{\contentsline {section}{\numberline {2.2}Diagnostyka stopy cukrzycowej}{6}{section.2.2}\protected@file@percent }
\abx@aux@cite{wang_area_2017}
\abx@aux@segm{0}{0}{wang_area_2017}
\abx@aux@cite{noauthor_mowa_nodate}
\abx@aux@segm{0}{0}{noauthor_mowa_nodate}
\abx@aux@cite{filko_wita_2010}
\abx@aux@segm{0}{0}{filko_wita_2010}
\abx@aux@cite{noauthor_digital_nodate}
\abx@aux@segm{0}{0}{noauthor_digital_nodate}
\abx@aux@cite{rajbhandari_digital_1999}
\abx@aux@segm{0}{0}{rajbhandari_digital_1999}
\abx@aux@cite{perez_segmentation_2001}
\abx@aux@segm{0}{0}{perez_segmentation_2001}
\abx@aux@cite{yadav_segmentation_2013}
\abx@aux@segm{0}{0}{yadav_segmentation_2013}
\abx@aux@cite{hettiarachchi_mobile_2013}
\abx@aux@segm{0}{0}{hettiarachchi_mobile_2013}
\abx@aux@cite{zhang_border_2000}
\abx@aux@segm{0}{0}{zhang_border_2000}
\abx@aux@cite{perez_segmentation_2001}
\abx@aux@segm{0}{0}{perez_segmentation_2001}
\abx@aux@cite{acha_pinero_segmentation_2005}
\abx@aux@segm{0}{0}{acha_pinero_segmentation_2005}
\abx@aux@cite{alzubaidi_dfu_qutnet_2019}
\abx@aux@segm{0}{0}{alzubaidi_dfu_qutnet_2019}
\abx@aux@cite{wang_area_2017}
\abx@aux@segm{0}{0}{wang_area_2017}
\abx@aux@cite{deng_unsupervised_2001}
\abx@aux@segm{0}{0}{deng_unsupervised_2001}
\abx@aux@cite{veredas_binary_2010}
\abx@aux@segm{0}{0}{veredas_binary_2010}
\abx@aux@cite{veredas_wound_2015}
\abx@aux@segm{0}{0}{veredas_wound_2015}
\abx@aux@cite{kolesnik_segmentation_2004}
\abx@aux@segm{0}{0}{kolesnik_segmentation_2004}
\abx@aux@cite{wannous_enhanced_2011}
\abx@aux@segm{0}{0}{wannous_enhanced_2011}
\abx@aux@cite{wantanajittikul_automatic_2012}
\abx@aux@segm{0}{0}{wantanajittikul_automatic_2012}
\abx@aux@cite{alzubaidi_dfu_qutnet_2019}
\abx@aux@segm{0}{0}{alzubaidi_dfu_qutnet_2019}
\abx@aux@cite{goyal_dfunet_2018}
\abx@aux@segm{0}{0}{goyal_dfunet_2018}
\abx@aux@cite{li_convolutional_2017}
\abx@aux@segm{0}{0}{li_convolutional_2017}
\abx@aux@cite{li_composite_2018}
\abx@aux@segm{0}{0}{li_composite_2018}
\abx@aux@cite{wang_unified_2015}
\abx@aux@segm{0}{0}{wang_unified_2015}
\abx@aux@cite{wang_area_2017}
\abx@aux@segm{0}{0}{wang_area_2017}
\abx@aux@cite{kolesnik_segmentation_2004}
\abx@aux@segm{0}{0}{kolesnik_segmentation_2004}
\abx@aux@cite{wannous_enhanced_2011}
\abx@aux@segm{0}{0}{wannous_enhanced_2011}
\abx@aux@cite{wantanajittikul_automatic_2012}
\abx@aux@segm{0}{0}{wantanajittikul_automatic_2012}
\abx@aux@cite{veredas_binary_2010}
\abx@aux@segm{0}{0}{veredas_binary_2010}
\abx@aux@cite{wannous_enhanced_2011}
\abx@aux@segm{0}{0}{wannous_enhanced_2011}
\abx@aux@cite{goyal_dfunet_2018}
\abx@aux@segm{0}{0}{goyal_dfunet_2018}
\abx@aux@cite{alzubaidi_dfu_qutnet_2019}
\abx@aux@segm{0}{0}{alzubaidi_dfu_qutnet_2019}
\abx@aux@cite{goyal_dfunet_2018}
\abx@aux@segm{0}{0}{goyal_dfunet_2018}
\abx@aux@cite{goyal_dfunet_2018}
\abx@aux@segm{0}{0}{goyal_dfunet_2018}
\abx@aux@cite{alzubaidi_dfu_qutnet_2019}
\abx@aux@segm{0}{0}{alzubaidi_dfu_qutnet_2019}
\@writefile{toc}{\defcounter {refsection}{0}\relax }\@writefile{toc}{\contentsline {chapter}{\numberline {3}Przegl\IeC {\k a}d literatury dotycz\IeC {\k a}cej segmentacji owrzodzenia w stopie cukrzycowej}{7}{chapter.3}\protected@file@percent }
\@writefile{lof}{\defcounter {refsection}{0}\relax }\@writefile{lof}{\addvspace {10\p@ }}
\@writefile{lot}{\defcounter {refsection}{0}\relax }\@writefile{lot}{\addvspace {10\p@ }}
\@writefile{loa}{\defcounter {refsection}{0}\relax }\@writefile{loa}{\addvspace {10\p@ }}
\abx@aux@cite{goyal_dfunet_2018}
\abx@aux@segm{0}{0}{goyal_dfunet_2018}
\abx@aux@cite{alzubaidi_dfu_qutnet_2019}
\abx@aux@segm{0}{0}{alzubaidi_dfu_qutnet_2019}
\abx@aux@cite{goodfellow_sieci_2018}
\abx@aux@segm{0}{0}{goodfellow_sieci_2018}
\abx@aux@cite{patterson_deep_2018}
\abx@aux@segm{0}{0}{patterson_deep_2018}
\abx@aux@cite{goodfellow_sieci_2018}
\abx@aux@segm{0}{0}{goodfellow_sieci_2018}
\abx@aux@cite{goodfellow_sieci_2018}
\abx@aux@segm{0}{0}{goodfellow_sieci_2018}
\abx@aux@cite{goodfellow_sieci_2018}
\abx@aux@segm{0}{0}{goodfellow_sieci_2018}
\abx@aux@cite{goodfellow_sieci_2018}
\abx@aux@segm{0}{0}{goodfellow_sieci_2018}
\abx@aux@cite{patterson_deep_2018}
\abx@aux@segm{0}{0}{patterson_deep_2018}
\abx@aux@cite{goodfellow_sieci_2018}
\abx@aux@segm{0}{0}{goodfellow_sieci_2018}
\abx@aux@cite{goodfellow_sieci_2018}
\abx@aux@segm{0}{0}{goodfellow_sieci_2018}
\abx@aux@cite{patterson_deep_2018}
\abx@aux@segm{0}{0}{patterson_deep_2018}
\abx@aux@cite{geron_splotowe_2018}
\abx@aux@segm{0}{0}{geron_splotowe_2018}
\abx@aux@cite{ramsundar_splotowe_2020}
\abx@aux@segm{0}{0}{ramsundar_splotowe_2020}
\abx@aux@cite{geron_splotowe_2018}
\abx@aux@segm{0}{0}{geron_splotowe_2018}
\abx@aux@cite{ramsundar_splotowe_2020}
\abx@aux@segm{0}{0}{ramsundar_splotowe_2020}
\abx@aux@cite{patterson_deep_2018}
\abx@aux@segm{0}{0}{patterson_deep_2018}
\abx@aux@cite{ramsundar_splotowe_2020}
\abx@aux@segm{0}{0}{ramsundar_splotowe_2020}
\@writefile{toc}{\defcounter {refsection}{0}\relax }\@writefile{toc}{\contentsline {chapter}{\numberline {4}Konwolucyjne sieci neuronowe}{9}{chapter.4}\protected@file@percent }
\@writefile{lof}{\defcounter {refsection}{0}\relax }\@writefile{lof}{\addvspace {10\p@ }}
\@writefile{lot}{\defcounter {refsection}{0}\relax }\@writefile{lot}{\addvspace {10\p@ }}
\@writefile{loa}{\defcounter {refsection}{0}\relax }\@writefile{loa}{\addvspace {10\p@ }}
\@writefile{toc}{\defcounter {refsection}{0}\relax }\@writefile{toc}{\contentsline {section}{\numberline {4.1}Wst\IeC {\k e}p do konwolucyjnych sieci neuronowych}{9}{section.4.1}\protected@file@percent }
\abx@aux@cite{goyal_dfunet_2018}
\abx@aux@segm{0}{0}{goyal_dfunet_2018}
\abx@aux@cite{alzubaidi_dfu_qutnet_2019}
\abx@aux@segm{0}{0}{alzubaidi_dfu_qutnet_2019}
\abx@aux@cite{alzubaidi_dfu_qutnet_2019}
\abx@aux@segm{0}{0}{alzubaidi_dfu_qutnet_2019}
\abx@aux@cite{alzubaidi_dfu_qutnet_2019}
\abx@aux@segm{0}{0}{alzubaidi_dfu_qutnet_2019}
\abx@aux@cite{alzubaidi_dfu_qutnet_2019}
\abx@aux@segm{0}{0}{alzubaidi_dfu_qutnet_2019}
\abx@aux@cite{szegedy_going_2015}
\abx@aux@segm{0}{0}{szegedy_going_2015}
\abx@aux@cite{geron_splotowe_2018}
\abx@aux@segm{0}{0}{geron_splotowe_2018}
\abx@aux@cite{geron_splotowe_2018}
\abx@aux@segm{0}{0}{geron_splotowe_2018}
\abx@aux@cite{szegedy_going_2015}
\abx@aux@segm{0}{0}{szegedy_going_2015}
\abx@aux@cite{szegedy_going_2015}
\abx@aux@segm{0}{0}{szegedy_going_2015}
\abx@aux@cite{geron_splotowe_2018}
\abx@aux@segm{0}{0}{geron_splotowe_2018}
\abx@aux@cite{geron_splotowe_2018}
\abx@aux@segm{0}{0}{geron_splotowe_2018}
\abx@aux@cite{szegedy_going_2015}
\abx@aux@segm{0}{0}{szegedy_going_2015}
\abx@aux@cite{szegedy_going_2015}
\abx@aux@segm{0}{0}{szegedy_going_2015}
\@writefile{lof}{\defcounter {refsection}{0}\relax }\@writefile{lof}{\contentsline {figure}{\numberline {4.1}{\ignorespaces {\color  {dgray}Klasyczna architektura sieci konwolucyjnej. Wed\IeC {\l }ug Aphex34 (Wikimedia) / CC BY-SA, url: https://commons.wikimedia.org/wiki/File:Typical\_cnn.png}\relax }}{10}{figure.caption.4}\protected@file@percent }
\newlabel{cnn}{{4.1}{10}{{\color {dgray}Klasyczna architektura sieci konwolucyjnej. Według Aphex34 (Wikimedia) / CC BY-SA, url: https://commons.wikimedia.org/wiki/File:Typical\_cnn.png}\relax }{figure.caption.4}{}}
\@writefile{toc}{\defcounter {refsection}{0}\relax }\@writefile{toc}{\contentsline {section}{\numberline {4.2}Om\IeC {\'o}wienie dotychczasowych architektur CNN maj\IeC {\k a}cych zastosowanie w zagadnieniu diagnostyki stopy cukrzycowej}{10}{section.4.2}\protected@file@percent }
\@writefile{lot}{\defcounter {refsection}{0}\relax }\@writefile{lot}{\contentsline {table}{\numberline {4.1}{\ignorespaces {\color  {dgray}Ewaluacja kilku architektur CNN w zagadnieniu stopy cukrzycowej. Wed\IeC {\l }ug \cite {alzubaidi_dfu_qutnet_2019}}\relax }}{10}{table.caption.5}\protected@file@percent }
\newlabel{porownanie}{{4.1}{10}{{\color {dgray}Ewaluacja kilku architektur CNN w zagadnieniu stopy cukrzycowej. Według \cite {alzubaidi_dfu_qutnet_2019}}\relax }{table.caption.5}{}}
\@writefile{toc}{\defcounter {refsection}{0}\relax }\@writefile{toc}{\contentsline {subsection}{\numberline {4.2.1}GoogLeNet 2014}{10}{subsection.4.2.1}\protected@file@percent }
\abx@aux@cite{geron_splotowe_2018}
\abx@aux@segm{0}{0}{geron_splotowe_2018}
\abx@aux@cite{szegedy_going_2015}
\abx@aux@segm{0}{0}{szegedy_going_2015}
\abx@aux@cite{goyal_dfunet_2018}
\abx@aux@segm{0}{0}{goyal_dfunet_2018}
\abx@aux@cite{goyal_dfunet_2018}
\abx@aux@segm{0}{0}{goyal_dfunet_2018}
\abx@aux@cite{goyal_dfunet_2018}
\abx@aux@segm{0}{0}{goyal_dfunet_2018}
\@writefile{lof}{\defcounter {refsection}{0}\relax }\@writefile{lof}{\contentsline {figure}{\numberline {4.2}{\ignorespaces {\color  {dgray}Modu\IeC {\l } incepcyjny GoogLeNet. Wed\IeC {\l }ug \cite {szegedy_going_2015}}\relax }}{11}{figure.caption.6}\protected@file@percent }
\newlabel{modul-incepcyjny}{{4.2}{11}{{\color {dgray}Moduł incepcyjny GoogLeNet. Według \cite {szegedy_going_2015}}\relax }{figure.caption.6}{}}
\@writefile{lot}{\defcounter {refsection}{0}\relax }\@writefile{lot}{\contentsline {table}{\numberline {4.2}{\ignorespaces {\color  {dgray}Architektura GoogLeNet. Wed\IeC {\l }ug \cite {szegedy_going_2015}.}\relax }}{11}{table.caption.7}\protected@file@percent }
\newlabel{googlenet}{{4.2}{11}{{\color {dgray}Architektura GoogLeNet. Według \cite {szegedy_going_2015}.}\relax }{table.caption.7}{}}
\@writefile{toc}{\defcounter {refsection}{0}\relax }\@writefile{toc}{\contentsline {subsection}{\numberline {4.2.2}DFUNet 2018}{11}{subsection.4.2.2}\protected@file@percent }
\abx@aux@cite{goyal_dfunet_2018}
\abx@aux@segm{0}{0}{goyal_dfunet_2018}
\abx@aux@cite{goyal_dfunet_2018}
\abx@aux@segm{0}{0}{goyal_dfunet_2018}
\abx@aux@cite{goyal_dfunet_2018}
\abx@aux@segm{0}{0}{goyal_dfunet_2018}
\abx@aux@cite{alzubaidi_dfu_qutnet_2019}
\abx@aux@segm{0}{0}{alzubaidi_dfu_qutnet_2019}
\abx@aux@cite{alzubaidi_dfu_qutnet_2019}
\abx@aux@segm{0}{0}{alzubaidi_dfu_qutnet_2019}
\abx@aux@cite{alzubaidi_dfu_qutnet_2019}
\abx@aux@segm{0}{0}{alzubaidi_dfu_qutnet_2019}
\abx@aux@cite{alzubaidi_dfu_qutnet_2019}
\abx@aux@segm{0}{0}{alzubaidi_dfu_qutnet_2019}
\abx@aux@cite{alzubaidi_dfu_qutnet_2019}
\abx@aux@segm{0}{0}{alzubaidi_dfu_qutnet_2019}
\abx@aux@cite{alzubaidi_dfu_qutnet_2019}
\abx@aux@segm{0}{0}{alzubaidi_dfu_qutnet_2019}
\abx@aux@cite{alzubaidi_dfu_qutnet_2019}
\abx@aux@segm{0}{0}{alzubaidi_dfu_qutnet_2019}
\abx@aux@cite{alzubaidi_dfu_qutnet_2019}
\abx@aux@segm{0}{0}{alzubaidi_dfu_qutnet_2019}
\@writefile{lof}{\defcounter {refsection}{0}\relax }\@writefile{lof}{\contentsline {figure}{\numberline {4.3}{\ignorespaces {\color  {dgray}Og\IeC {\'o}lny widok architektury DFUNet. Wed\IeC {\l }ug \cite {goyal_dfunet_2018}.}\relax }}{12}{figure.caption.8}\protected@file@percent }
\newlabel{dfunet}{{4.3}{12}{{\color {dgray}Ogólny widok architektury DFUNet. Według \cite {goyal_dfunet_2018}.}\relax }{figure.caption.8}{}}
\@writefile{lot}{\defcounter {refsection}{0}\relax }\@writefile{lot}{\contentsline {table}{\numberline {4.3}{\ignorespaces {\color  {dgray}Architektura DFUNet. Wed\IeC {\l }ug \cite {goyal_dfunet_2018}.}\relax }}{12}{table.caption.9}\protected@file@percent }
\newlabel{dfunet-tabela}{{4.3}{12}{{\color {dgray}Architektura DFUNet. Według \cite {goyal_dfunet_2018}.}\relax }{table.caption.9}{}}
\@writefile{toc}{\defcounter {refsection}{0}\relax }\@writefile{toc}{\contentsline {subsection}{\numberline {4.2.3}DFU\_QUTNet 2019}{12}{subsection.4.2.3}\protected@file@percent }
\@writefile{lof}{\defcounter {refsection}{0}\relax }\@writefile{lof}{\contentsline {figure}{\numberline {4.4}{\ignorespaces {\color  {dgray}Og\IeC {\'o}lny widok architektury DFU\_QUTNet. Wed\IeC {\l }ug \cite {alzubaidi_dfu_qutnet_2019}.}\relax }}{13}{figure.caption.10}\protected@file@percent }
\newlabel{dfu_qutnet}{{4.4}{13}{{\color {dgray}Ogólny widok architektury DFU\_QUTNet. Według \cite {alzubaidi_dfu_qutnet_2019}.}\relax }{figure.caption.10}{}}
\@writefile{lot}{\defcounter {refsection}{0}\relax }\@writefile{lot}{\contentsline {table}{\numberline {4.4}{\ignorespaces {\color  {dgray}Architektura DFU\_QUTNet. Wed\IeC {\l }ug \cite {alzubaidi_dfu_qutnet_2019}}\relax }}{13}{table.caption.11}\protected@file@percent }
\newlabel{dfu_qutnet_tabela}{{4.4}{13}{{\color {dgray}Architektura DFU\_QUTNet. Według \cite {alzubaidi_dfu_qutnet_2019}}\relax }{table.caption.11}{}}
\@writefile{toc}{\defcounter {refsection}{0}\relax }\@writefile{toc}{\contentsline {subsection}{\numberline {4.2.4}Wnioski}{14}{subsection.4.2.4}\protected@file@percent }
\@writefile{toc}{\defcounter {refsection}{0}\relax }\@writefile{toc}{\contentsline {chapter}{Bibliografia}{17}{chapter*.12}\protected@file@percent }
\abx@aux@refcontextdefaultsdone
\abx@aux@defaultrefcontext{0}{international_diabetes_federation_idf_2019}{none/global//global/global}
\abx@aux@defaultrefcontext{0}{karnafel_epidemiologia_2013}{none/global//global/global}
\abx@aux@defaultrefcontext{0}{international_diabetes_federation_clinical_2017}{none/global//global/global}
\abx@aux@defaultrefcontext{0}{karnafel_etiologia_2013}{none/global//global/global}
\abx@aux@defaultrefcontext{0}{karnafel_rola_2013}{none/global//global/global}
\abx@aux@defaultrefcontext{0}{katsilambaros_atlas_2012}{none/global//global/global}
\abx@aux@defaultrefcontext{0}{karnafel_choroba_2013}{none/global//global/global}
\abx@aux@defaultrefcontext{0}{mrozikiewicz-rakowska_staw_2013}{none/global//global/global}
\abx@aux@defaultrefcontext{0}{rosinski_atlas_2009}{none/global//global/global}
\abx@aux@defaultrefcontext{0}{wang_area_2017}{none/global//global/global}
\abx@aux@defaultrefcontext{0}{noauthor_mowa_nodate}{none/global//global/global}
\abx@aux@defaultrefcontext{0}{filko_wita_2010}{none/global//global/global}
\abx@aux@defaultrefcontext{0}{noauthor_digital_nodate}{none/global//global/global}
\abx@aux@defaultrefcontext{0}{rajbhandari_digital_1999}{none/global//global/global}
\abx@aux@defaultrefcontext{0}{perez_segmentation_2001}{none/global//global/global}
\abx@aux@defaultrefcontext{0}{yadav_segmentation_2013}{none/global//global/global}
\abx@aux@defaultrefcontext{0}{hettiarachchi_mobile_2013}{none/global//global/global}
\abx@aux@defaultrefcontext{0}{zhang_border_2000}{none/global//global/global}
\abx@aux@defaultrefcontext{0}{acha_pinero_segmentation_2005}{none/global//global/global}
\abx@aux@defaultrefcontext{0}{alzubaidi_dfu_qutnet_2019}{none/global//global/global}
\abx@aux@defaultrefcontext{0}{deng_unsupervised_2001}{none/global//global/global}
\abx@aux@defaultrefcontext{0}{veredas_binary_2010}{none/global//global/global}
\abx@aux@defaultrefcontext{0}{veredas_wound_2015}{none/global//global/global}
\abx@aux@defaultrefcontext{0}{kolesnik_segmentation_2004}{none/global//global/global}
\abx@aux@defaultrefcontext{0}{wannous_enhanced_2011}{none/global//global/global}
\abx@aux@defaultrefcontext{0}{wantanajittikul_automatic_2012}{none/global//global/global}
\abx@aux@defaultrefcontext{0}{goyal_dfunet_2018}{none/global//global/global}
\abx@aux@defaultrefcontext{0}{li_convolutional_2017}{none/global//global/global}
\abx@aux@defaultrefcontext{0}{li_composite_2018}{none/global//global/global}
\abx@aux@defaultrefcontext{0}{wang_unified_2015}{none/global//global/global}
\abx@aux@defaultrefcontext{0}{goodfellow_sieci_2018}{none/global//global/global}
\abx@aux@defaultrefcontext{0}{patterson_deep_2018}{none/global//global/global}
\abx@aux@defaultrefcontext{0}{geron_splotowe_2018}{none/global//global/global}
\abx@aux@defaultrefcontext{0}{ramsundar_splotowe_2020}{none/global//global/global}
\abx@aux@defaultrefcontext{0}{szegedy_going_2015}{none/global//global/global}
